%YAML 1.1
%TAG !u! tag:unity3d.com,2011:
--- !u!1045 &1
EditorBuildSettings:
  m_ObjectHideFlags: 0
  serializedVersion: 2
  m_Scenes:
  - enabled: 0
    path: Assets/FirebaseTest/FirebaseScenes/FirebaseRemoteConfigTest.unity
    guid: 3f5a0c7dfdf00f7468f5a16a9193044a
  - enabled: 0
    path: Assets/FirebaseTest/FirebaseScenes/FirebaseMessagingTest.unity
    guid: c67252f0db8e2ab4fba9884bcfcb8ffb
  - enabled: 1
    path: Assets/AdsIntegration/Scenes/AdTest.unity
    guid: 74d6bdb19361c5248978a70f5e64c7da
  - enabled: 0
    path: Assets/AudienceNetwork/Scenes/Interstitial/InterstitialAdScene.unity
    guid: f72b5a1d5965144f795ee32584534444
  m_configObjects: {}
