%YAML 1.1
%TAG !u! tag:unity3d.com,2011:
--- !u!114 &11400000
MonoBehaviour:
  m_ObjectHideFlags: 0
  m_CorrespondingSourceObject: {fileID: 0}
  m_PrefabInstance: {fileID: 0}
  m_PrefabAsset: {fileID: 0}
  m_GameObject: {fileID: 0}
  m_Enabled: 1
  m_EditorHideFlags: 0
  m_Script: {fileID: 11500000, guid: 2bb0dfcbfce6047bf8ef6d6341396059, type: 3}
  m_Name: RateUsSettings
  m_EditorClassIdentifier: 
  numberOfStarsToAcceptReview: 1
  email: me@example.com
  subject: My Subject
  body: "My Body\r\nFull of non-escaped chars"
  isRateUsFoldoutOpened: 1
