%YAML 1.1
%TAG !u! tag:unity3d.com,2011:
--- !u!1 &1101265902242665953
GameObject:
  m_ObjectHideFlags: 0
  m_CorrespondingSourceObject: {fileID: 0}
  m_PrefabInstance: {fileID: 0}
  m_PrefabAsset: {fileID: 0}
  serializedVersion: 6
  m_Component:
  - component: {fileID: 1101265902242665959}
  - component: {fileID: 1101265902242665952}
  - component: {fileID: 1101265902242665958}
  m_Layer: 0
  m_Name: AdManager
  m_TagString: Untagged
  m_Icon: {fileID: 0}
  m_NavMeshLayer: 0
  m_StaticEditorFlags: 0
  m_IsActive: 1
--- !u!4 &1101265902242665959
Transform:
  m_ObjectHideFlags: 0
  m_CorrespondingSourceObject: {fileID: 0}
  m_PrefabInstance: {fileID: 0}
  m_PrefabAsset: {fileID: 0}
  m_GameObject: {fileID: 1101265902242665953}
  m_LocalRotation: {x: 0, y: 0, z: 0, w: 1}
  m_LocalPosition: {x: 239.29523, y: 225.08124, z: 3.832243}
  m_LocalScale: {x: 1, y: 1, z: 1}
  m_Children: []
  m_Father: {fileID: 0}
  m_RootOrder: 0
  m_LocalEulerAnglesHint: {x: 0, y: 0, z: 0}
--- !u!114 &1101265902242665952
MonoBehaviour:
  m_ObjectHideFlags: 0
  m_CorrespondingSourceObject: {fileID: 0}
  m_PrefabInstance: {fileID: 0}
  m_PrefabAsset: {fileID: 0}
  m_GameObject: {fileID: 1101265902242665953}
  m_Enabled: 1
  m_EditorHideFlags: 0
  m_Script: {fileID: 11500000, guid: c0545cce0ec81f842b30e2b8ad6ac9d5, type: 3}
  m_Name: 
  m_EditorClassIdentifier: 
  InsterstitialID: 
  RewardedVideoID: 
  BannerUnitID: 
  InterstitialIdIOS: 
  RewardedVideoIdIOS: 
  BannerUnitIdIOS: 
  ShowBannerAds: 0
  ShowTestAds: 1
  BlockAdsIAPEnabled: 1
  LoadAdObject: {fileID: 0}
--- !u!114 &1101265902242665958
MonoBehaviour:
  m_ObjectHideFlags: 0
  m_CorrespondingSourceObject: {fileID: 0}
  m_PrefabInstance: {fileID: 0}
  m_PrefabAsset: {fileID: 0}
  m_GameObject: {fileID: 1101265902242665953}
  m_Enabled: 1
  m_EditorHideFlags: 0
  m_Script: {fileID: 11500000, guid: 83f9afa75e9748f4eae62bf755881f78, type: 3}
  m_Name: 
  m_EditorClassIdentifier: 
  IOSInsterstitialPlacement: 
  AndroidInsterstitialPlacement: 
  BannerPlacement: 
  RewardedPlacement: 
