.NET framework version changed from 4.5 to 3.5

Assets\Parse\Plugins\dotNet45\Unity.Compat.dll: editor enabled False (current: True)
.NET selected 3.5, supported (4.5)
Assets\Parse\Plugins\dotNet45\Unity.Compat.dll: StandaloneOSXUniversal enabled False (current: True)
.NET selected 3.5, supported (4.5)
Assets\Parse\Plugins\dotNet45\Unity.Compat.dll: StandaloneWindows enabled False (current: True)
.NET selected 3.5, supported (4.5)
Assets\Parse\Plugins\dotNet45\Unity.Compat.dll: iOS enabled False (current: True)
.NET selected 3.5, supported (4.5)
Assets\Parse\Plugins\dotNet45\Unity.Compat.dll: Android enabled False (current: True)
.NET selected 3.5, supported (4.5)
Assets\Parse\Plugins\dotNet45\Unity.Compat.dll: StandaloneLinux enabled False (current: True)
.NET selected 3.5, supported (4.5)
Assets\Parse\Plugins\dotNet45\Unity.Compat.dll: StandaloneWindows64 enabled False (current: True)
.NET selected 3.5, supported (4.5)
Assets\Parse\Plugins\dotNet45\Unity.Compat.dll: WebGL enabled False (current: True)
.NET selected 3.5, supported (4.5)
Assets\Parse\Plugins\dotNet45\Unity.Compat.dll: StandaloneLinux64 enabled False (current: True)
.NET selected 3.5, supported (4.5)
Assets\Parse\Plugins\dotNet45\Unity.Compat.dll: PS4 enabled False (current: True)
.NET selected 3.5, supported (4.5)
Assets\Parse\Plugins\dotNet45\Unity.Compat.dll: XboxOne enabled False (current: True)
.NET selected 3.5, supported (4.5)
Assets\Parse\Plugins\dotNet45\Unity.Compat.dll: tvOS enabled False (current: True)
.NET selected 3.5, supported (4.5)
Assets\Parse\Plugins\dotNet45\Unity.Compat.dll: Switch enabled False (current: True)
.NET selected 3.5, supported (4.5)
Assets\Parse\Plugins\dotNet45\Unity.Compat.dll: enabled version 6.0.0
Assets\Parse\Plugins\dotNet45\Unity.Tasks.dll: editor enabled False (current: True)
.NET selected 3.5, supported (4.5)
Assets\Parse\Plugins\dotNet45\Unity.Tasks.dll: StandaloneOSXUniversal enabled False (current: True)
.NET selected 3.5, supported (4.5)
Assets\Parse\Plugins\dotNet45\Unity.Tasks.dll: StandaloneWindows enabled False (current: True)
.NET selected 3.5, supported (4.5)
Assets\Parse\Plugins\dotNet45\Unity.Tasks.dll: iOS enabled False (current: True)
.NET selected 3.5, supported (4.5)
Assets\Parse\Plugins\dotNet45\Unity.Tasks.dll: Android enabled False (current: True)
.NET selected 3.5, supported (4.5)
Assets\Parse\Plugins\dotNet45\Unity.Tasks.dll: StandaloneLinux enabled False (current: True)
.NET selected 3.5, supported (4.5)
Assets\Parse\Plugins\dotNet45\Unity.Tasks.dll: StandaloneWindows64 enabled False (current: True)
.NET selected 3.5, supported (4.5)
Assets\Parse\Plugins\dotNet45\Unity.Tasks.dll: WebGL enabled False (current: True)
.NET selected 3.5, supported (4.5)
Assets\Parse\Plugins\dotNet45\Unity.Tasks.dll: StandaloneLinux64 enabled False (current: True)
.NET selected 3.5, supported (4.5)
Assets\Parse\Plugins\dotNet45\Unity.Tasks.dll: PS4 enabled False (current: True)
.NET selected 3.5, supported (4.5)
Assets\Parse\Plugins\dotNet45\Unity.Tasks.dll: XboxOne enabled False (current: True)
.NET selected 3.5, supported (4.5)
Assets\Parse\Plugins\dotNet45\Unity.Tasks.dll: tvOS enabled False (current: True)
.NET selected 3.5, supported (4.5)
Assets\Parse\Plugins\dotNet45\Unity.Tasks.dll: Switch enabled False (current: True)
.NET selected 3.5, supported (4.5)
Assets\Parse\Plugins\dotNet45\Unity.Tasks.dll: enabled version 6.0.0
Assets\Parse\Plugins\Unity.Compat.dll: editor enabled True (current: False)
.NET selected 3.5, supported (3.5)
Assets\Parse\Plugins\Unity.Compat.dll: StandaloneOSXUniversal enabled True (current: False)
.NET selected 3.5, supported (3.5)
Assets\Parse\Plugins\Unity.Compat.dll: StandaloneOSXIntel enabled True (current: False)
.NET selected 3.5, supported (3.5)
Assets\Parse\Plugins\Unity.Compat.dll: StandaloneWindows enabled True (current: False)
.NET selected 3.5, supported (3.5)
Assets\Parse\Plugins\Unity.Compat.dll: iOS enabled True (current: False)
.NET selected 3.5, supported (3.5)
Assets\Parse\Plugins\Unity.Compat.dll: Android enabled True (current: False)
.NET selected 3.5, supported (3.5)
Assets\Parse\Plugins\Unity.Compat.dll: StandaloneLinux enabled True (current: False)
.NET selected 3.5, supported (3.5)
Assets\Parse\Plugins\Unity.Compat.dll: StandaloneWindows64 enabled True (current: False)
.NET selected 3.5, supported (3.5)
Assets\Parse\Plugins\Unity.Compat.dll: WebGL enabled True (current: False)
.NET selected 3.5, supported (3.5)
Assets\Parse\Plugins\Unity.Compat.dll: StandaloneLinux64 enabled True (current: False)
.NET selected 3.5, supported (3.5)
Assets\Parse\Plugins\Unity.Compat.dll: StandaloneOSXIntel64 enabled True (current: False)
.NET selected 3.5, supported (3.5)
Assets\Parse\Plugins\Unity.Compat.dll: Tizen enabled True (current: False)
.NET selected 3.5, supported (3.5)
Assets\Parse\Plugins\Unity.Compat.dll: PSP2 enabled True (current: False)
.NET selected 3.5, supported (3.5)
Assets\Parse\Plugins\Unity.Compat.dll: PS4 enabled True (current: False)
.NET selected 3.5, supported (3.5)
Assets\Parse\Plugins\Unity.Compat.dll: XboxOne enabled True (current: False)
.NET selected 3.5, supported (3.5)
Assets\Parse\Plugins\Unity.Compat.dll: SamsungTV enabled True (current: False)
.NET selected 3.5, supported (3.5)
Assets\Parse\Plugins\Unity.Compat.dll: N3DS enabled True (current: False)
.NET selected 3.5, supported (3.5)
Assets\Parse\Plugins\Unity.Compat.dll: WiiU enabled True (current: False)
.NET selected 3.5, supported (3.5)
Assets\Parse\Plugins\Unity.Compat.dll: tvOS enabled True (current: False)
.NET selected 3.5, supported (3.5)
Assets\Parse\Plugins\Unity.Compat.dll: Switch enabled True (current: False)
.NET selected 3.5, supported (3.5)
Assets\Parse\Plugins\Unity.Compat.dll: enabled version 6.0.0
Assets\Parse\Plugins\Unity.Tasks.dll: editor enabled True (current: False)
.NET selected 3.5, supported (3.5)
Assets\Parse\Plugins\Unity.Tasks.dll: StandaloneOSXUniversal enabled True (current: False)
.NET selected 3.5, supported (3.5)
Assets\Parse\Plugins\Unity.Tasks.dll: StandaloneOSXIntel enabled True (current: False)
.NET selected 3.5, supported (3.5)
Assets\Parse\Plugins\Unity.Tasks.dll: StandaloneWindows enabled True (current: False)
.NET selected 3.5, supported (3.5)
Assets\Parse\Plugins\Unity.Tasks.dll: iOS enabled True (current: False)
.NET selected 3.5, supported (3.5)
Assets\Parse\Plugins\Unity.Tasks.dll: Android enabled True (current: False)
.NET selected 3.5, supported (3.5)
Assets\Parse\Plugins\Unity.Tasks.dll: StandaloneLinux enabled True (current: False)
.NET selected 3.5, supported (3.5)
Assets\Parse\Plugins\Unity.Tasks.dll: StandaloneWindows64 enabled True (current: False)
.NET selected 3.5, supported (3.5)
Assets\Parse\Plugins\Unity.Tasks.dll: WebGL enabled True (current: False)
.NET selected 3.5, supported (3.5)
Assets\Parse\Plugins\Unity.Tasks.dll: StandaloneLinux64 enabled True (current: False)
.NET selected 3.5, supported (3.5)
Assets\Parse\Plugins\Unity.Tasks.dll: StandaloneOSXIntel64 enabled True (current: False)
.NET selected 3.5, supported (3.5)
Assets\Parse\Plugins\Unity.Tasks.dll: Tizen enabled True (current: False)
.NET selected 3.5, supported (3.5)
Assets\Parse\Plugins\Unity.Tasks.dll: PSP2 enabled True (current: False)
.NET selected 3.5, supported (3.5)
Assets\Parse\Plugins\Unity.Tasks.dll: PS4 enabled True (current: False)
.NET selected 3.5, supported (3.5)
Assets\Parse\Plugins\Unity.Tasks.dll: XboxOne enabled True (current: False)
.NET selected 3.5, supported (3.5)
Assets\Parse\Plugins\Unity.Tasks.dll: SamsungTV enabled True (current: False)
.NET selected 3.5, supported (3.5)
Assets\Parse\Plugins\Unity.Tasks.dll: N3DS enabled True (current: False)
.NET selected 3.5, supported (3.5)
Assets\Parse\Plugins\Unity.Tasks.dll: WiiU enabled True (current: False)
.NET selected 3.5, supported (3.5)
Assets\Parse\Plugins\Unity.Tasks.dll: tvOS enabled True (current: False)
.NET selected 3.5, supported (3.5)
Assets\Parse\Plugins\Unity.Tasks.dll: Switch enabled True (current: False)
.NET selected 3.5, supported (3.5)
Assets\Parse\Plugins\Unity.Tasks.dll: enabled version 6.0.0
.NET framework version changed from 3.5 to 4.5

Assets\Parse\Plugins\dotNet45\Unity.Compat.dll: editor enabled True (current: False)
.NET selected 4.5, supported (4.5)
Assets\Parse\Plugins\dotNet45\Unity.Compat.dll: StandaloneOSXUniversal enabled True (current: False)
.NET selected 4.5, supported (4.5)
Assets\Parse\Plugins\dotNet45\Unity.Compat.dll: StandaloneOSXIntel enabled True (current: False)
.NET selected 4.5, supported (4.5)
Assets\Parse\Plugins\dotNet45\Unity.Compat.dll: StandaloneWindows enabled True (current: False)
.NET selected 4.5, supported (4.5)
Assets\Parse\Plugins\dotNet45\Unity.Compat.dll: iOS enabled True (current: False)
.NET selected 4.5, supported (4.5)
Assets\Parse\Plugins\dotNet45\Unity.Compat.dll: Android enabled True (current: False)
.NET selected 4.5, supported (4.5)
Assets\Parse\Plugins\dotNet45\Unity.Compat.dll: StandaloneLinux enabled True (current: False)
.NET selected 4.5, supported (4.5)
Assets\Parse\Plugins\dotNet45\Unity.Compat.dll: StandaloneWindows64 enabled True (current: False)
.NET selected 4.5, supported (4.5)
Assets\Parse\Plugins\dotNet45\Unity.Compat.dll: WebGL enabled True (current: False)
.NET selected 4.5, supported (4.5)
Assets\Parse\Plugins\dotNet45\Unity.Compat.dll: StandaloneLinux64 enabled True (current: False)
.NET selected 4.5, supported (4.5)
Assets\Parse\Plugins\dotNet45\Unity.Compat.dll: StandaloneOSXIntel64 enabled True (current: False)
.NET selected 4.5, supported (4.5)
Assets\Parse\Plugins\dotNet45\Unity.Compat.dll: Tizen enabled True (current: False)
.NET selected 4.5, supported (4.5)
Assets\Parse\Plugins\dotNet45\Unity.Compat.dll: PSP2 enabled True (current: False)
.NET selected 4.5, supported (4.5)
Assets\Parse\Plugins\dotNet45\Unity.Compat.dll: PS4 enabled True (current: False)
.NET selected 4.5, supported (4.5)
Assets\Parse\Plugins\dotNet45\Unity.Compat.dll: XboxOne enabled True (current: False)
.NET selected 4.5, supported (4.5)
Assets\Parse\Plugins\dotNet45\Unity.Compat.dll: SamsungTV enabled True (current: False)
.NET selected 4.5, supported (4.5)
Assets\Parse\Plugins\dotNet45\Unity.Compat.dll: N3DS enabled True (current: False)
.NET selected 4.5, supported (4.5)
Assets\Parse\Plugins\dotNet45\Unity.Compat.dll: WiiU enabled True (current: False)
.NET selected 4.5, supported (4.5)
Assets\Parse\Plugins\dotNet45\Unity.Compat.dll: tvOS enabled True (current: False)
.NET selected 4.5, supported (4.5)
Assets\Parse\Plugins\dotNet45\Unity.Compat.dll: Switch enabled True (current: False)
.NET selected 4.5, supported (4.5)
Assets\Parse\Plugins\dotNet45\Unity.Compat.dll: enabled version 6.0.0
Assets\Parse\Plugins\dotNet45\Unity.Tasks.dll: editor enabled True (current: False)
.NET selected 4.5, supported (4.5)
Assets\Parse\Plugins\dotNet45\Unity.Tasks.dll: StandaloneOSXUniversal enabled True (current: False)
.NET selected 4.5, supported (4.5)
Assets\Parse\Plugins\dotNet45\Unity.Tasks.dll: StandaloneOSXIntel enabled True (current: False)
.NET selected 4.5, supported (4.5)
Assets\Parse\Plugins\dotNet45\Unity.Tasks.dll: StandaloneWindows enabled True (current: False)
.NET selected 4.5, supported (4.5)
Assets\Parse\Plugins\dotNet45\Unity.Tasks.dll: iOS enabled True (current: False)
.NET selected 4.5, supported (4.5)
Assets\Parse\Plugins\dotNet45\Unity.Tasks.dll: Android enabled True (current: False)
.NET selected 4.5, supported (4.5)
Assets\Parse\Plugins\dotNet45\Unity.Tasks.dll: StandaloneLinux enabled True (current: False)
.NET selected 4.5, supported (4.5)
Assets\Parse\Plugins\dotNet45\Unity.Tasks.dll: StandaloneWindows64 enabled True (current: False)
.NET selected 4.5, supported (4.5)
Assets\Parse\Plugins\dotNet45\Unity.Tasks.dll: WebGL enabled True (current: False)
.NET selected 4.5, supported (4.5)
Assets\Parse\Plugins\dotNet45\Unity.Tasks.dll: StandaloneLinux64 enabled True (current: False)
.NET selected 4.5, supported (4.5)
Assets\Parse\Plugins\dotNet45\Unity.Tasks.dll: StandaloneOSXIntel64 enabled True (current: False)
.NET selected 4.5, supported (4.5)
Assets\Parse\Plugins\dotNet45\Unity.Tasks.dll: Tizen enabled True (current: False)
.NET selected 4.5, supported (4.5)
Assets\Parse\Plugins\dotNet45\Unity.Tasks.dll: PSP2 enabled True (current: False)
.NET selected 4.5, supported (4.5)
Assets\Parse\Plugins\dotNet45\Unity.Tasks.dll: PS4 enabled True (current: False)
.NET selected 4.5, supported (4.5)
Assets\Parse\Plugins\dotNet45\Unity.Tasks.dll: XboxOne enabled True (current: False)
.NET selected 4.5, supported (4.5)
Assets\Parse\Plugins\dotNet45\Unity.Tasks.dll: SamsungTV enabled True (current: False)
.NET selected 4.5, supported (4.5)
Assets\Parse\Plugins\dotNet45\Unity.Tasks.dll: N3DS enabled True (current: False)
.NET selected 4.5, supported (4.5)
Assets\Parse\Plugins\dotNet45\Unity.Tasks.dll: WiiU enabled True (current: False)
.NET selected 4.5, supported (4.5)
Assets\Parse\Plugins\dotNet45\Unity.Tasks.dll: tvOS enabled True (current: False)
.NET selected 4.5, supported (4.5)
Assets\Parse\Plugins\dotNet45\Unity.Tasks.dll: Switch enabled True (current: False)
.NET selected 4.5, supported (4.5)
Assets\Parse\Plugins\dotNet45\Unity.Tasks.dll: enabled version 6.0.0
Assets\Parse\Plugins\Unity.Compat.dll: editor enabled False (current: True)
.NET selected 4.5, supported (3.5)
Assets\Parse\Plugins\Unity.Compat.dll: StandaloneOSXUniversal enabled False (current: True)
.NET selected 4.5, supported (3.5)
Assets\Parse\Plugins\Unity.Compat.dll: StandaloneWindows enabled False (current: True)
.NET selected 4.5, supported (3.5)
Assets\Parse\Plugins\Unity.Compat.dll: iOS enabled False (current: True)
.NET selected 4.5, supported (3.5)
Assets\Parse\Plugins\Unity.Compat.dll: Android enabled False (current: True)
.NET selected 4.5, supported (3.5)
Assets\Parse\Plugins\Unity.Compat.dll: StandaloneLinux enabled False (current: True)
.NET selected 4.5, supported (3.5)
Assets\Parse\Plugins\Unity.Compat.dll: StandaloneWindows64 enabled False (current: True)
.NET selected 4.5, supported (3.5)
Assets\Parse\Plugins\Unity.Compat.dll: WebGL enabled False (current: True)
.NET selected 4.5, supported (3.5)
Assets\Parse\Plugins\Unity.Compat.dll: StandaloneLinux64 enabled False (current: True)
.NET selected 4.5, supported (3.5)
Assets\Parse\Plugins\Unity.Compat.dll: PS4 enabled False (current: True)
.NET selected 4.5, supported (3.5)
Assets\Parse\Plugins\Unity.Compat.dll: XboxOne enabled False (current: True)
.NET selected 4.5, supported (3.5)
Assets\Parse\Plugins\Unity.Compat.dll: tvOS enabled False (current: True)
.NET selected 4.5, supported (3.5)
Assets\Parse\Plugins\Unity.Compat.dll: Switch enabled False (current: True)
.NET selected 4.5, supported (3.5)
Assets\Parse\Plugins\Unity.Compat.dll: enabled version 6.0.0
Assets\Parse\Plugins\Unity.Tasks.dll: editor enabled False (current: True)
.NET selected 4.5, supported (3.5)
Assets\Parse\Plugins\Unity.Tasks.dll: StandaloneOSXUniversal enabled False (current: True)
.NET selected 4.5, supported (3.5)
Assets\Parse\Plugins\Unity.Tasks.dll: StandaloneWindows enabled False (current: True)
.NET selected 4.5, supported (3.5)
Assets\Parse\Plugins\Unity.Tasks.dll: iOS enabled False (current: True)
.NET selected 4.5, supported (3.5)
Assets\Parse\Plugins\Unity.Tasks.dll: Android enabled False (current: True)
.NET selected 4.5, supported (3.5)
Assets\Parse\Plugins\Unity.Tasks.dll: StandaloneLinux enabled False (current: True)
.NET selected 4.5, supported (3.5)
Assets\Parse\Plugins\Unity.Tasks.dll: StandaloneWindows64 enabled False (current: True)
.NET selected 4.5, supported (3.5)
Assets\Parse\Plugins\Unity.Tasks.dll: WebGL enabled False (current: True)
.NET selected 4.5, supported (3.5)
Assets\Parse\Plugins\Unity.Tasks.dll: StandaloneLinux64 enabled False (current: True)
.NET selected 4.5, supported (3.5)
Assets\Parse\Plugins\Unity.Tasks.dll: PS4 enabled False (current: True)
.NET selected 4.5, supported (3.5)
Assets\Parse\Plugins\Unity.Tasks.dll: XboxOne enabled False (current: True)
.NET selected 4.5, supported (3.5)
Assets\Parse\Plugins\Unity.Tasks.dll: tvOS enabled False (current: True)
.NET selected 4.5, supported (3.5)
Assets\Parse\Plugins\Unity.Tasks.dll: Switch enabled False (current: True)
.NET selected 4.5, supported (3.5)
Assets\Parse\Plugins\Unity.Tasks.dll: enabled version 6.0.0
